f:\project\eclipse-workspace-test\tool\src\main\java\com\devopsworkshop\tool\App.java
f:\project\eclipse-workspace-test\tool\src\main\java\com\devopsworkshop\tool\FizzBuzzCalculator.java
f:\project\eclipse-workspace-test\tool\src\main\java\com\devopsworkshop\tool\LeapYearCalculator.java
